{
  "project_info": {
    "project_number": "463830465459",
    "firebase_url": "https://ligal-platform.firebaseio.com",
    "project_id": "ligal-platform",
    "storage_bucket": "ligal-platform.appspot.com"
  },
  "client": [
    {
      "client_info": {
        "mobilesdk_app_id": "1:463830465459:android:fd6b8449eb885bad1069c6",
        "android_client_info": {
          "package_name": "com.ligal"
        }
      },
      "oauth_client": [
        {
          "client_id": "463830465459-8vmrtmqkkq26boa1vs9iaghuv4np3rqr.apps.googleusercontent.com",
          "client_type": 1,
          "android_info": {
            "package_name": "com.ligal",
            "certificate_hash": "e971289d3c586a52bebdac53a78649d88b171dc0"
          }
        },
        {
          "client_id": "463830465459-0mvfd7lf03go24pjmcaglcpm152fdk24.apps.googleusercontent.com",
          "client_type": 3
        }
      ],
      "api_key": [
        {
          "current_key": "AIzaSyCuV8JpTyaIsRGc-hDOiiJG0X61PwF35NY"
        }
      ],
      "services": {
        "appinvite_service": {
          "other_platform_oauth_client": [
            {
              "client_id": "463830465459-0mvfd7lf03go24pjmcaglcpm152fdk24.apps.googleusercontent.com",
              "client_type": 3
            }
          ]
        }
      }
    }
  ],
  "configuration_version": "1"
}